<?xml version="1.0" encoding="utf-8"?>
<!-- Generator: Adobe Illustrator 24.1.2, SVG Export Plug-In . SVG Version: 6.00 Build 0)  -->
<svg version="1.1" id="Layer_1" xmlns="http://www.w3.org/2000/svg" xmlns:xlink="http://www.w3.org/1999/xlink" x="0px" y="0px"
	 viewBox="0 0 72 72" style="enable-background:new 0 0 72 72;" xml:space="preserve">
<style type="text/css">
	.st0{fill:#F89523;}
	.st1{fill:#FFFFFF;}
</style>
<circle class="st0" cx="36.1" cy="36.2" r="32.7"/>
<polygon class="st1" points="26.8,20.4 51.7,35.7 26.8,52.1 "/>
</svg>
